{
  "result": {
    "item": "portality:module_interdimensional"
  },
  "pattern": [
    "fdf",
    "dqd",
    "fdf"
  ],
  "type": "forge:ore_shaped",
  "key": {
    "f": {
      "item": "portality:frame"
    },
    "d": {
      "item": "minecraft:ender_eye"
    },
    "q": {
      "item": "minecraft:quartz_block",
      "data": 0
    }
  }
}